[{
  "categories": [{
    "href": "https://api.gwentapi.com/v0/categories/1wnI6NinXfK1PqobYjCsYg",
    "name": "Necrophage"
  }],
  "faction": {
    "href": "https://api.gwentapi.com/v0/factions/M_7suYAmXIC1wZnypJ5zYg",
    "name": "Monster"
  },
  "flavor": "Seen a lot o' ugly critters in me life – morays, lampreys, blobfish… But never nothin' like this!",
  "group": {
    "href": "https://api.gwentapi.com/v0/groups/H7ISGXIHW6WazTe6-Iamag",
    "name": "Silver"
  },
  "href": "https://api.gwentapi.com/v0/cards/kW4_kj1UVoOPxxw4M_w_2A",
  "info": "Deploy: Spawn Torrential Rain, Clear Skies or Arachas Venom.",
  "name": "Abaya",
  "positions": [
    "Siege"
  ],
  "strength": 3,
  "uuid": "kW4_kj1UVoOPxxw4M_w_2A",
  "variations": [{
    "availability": "BaseSet",
    "href": "https://api.gwentapi.com/v0/cards/kW4_kj1UVoOPxxw4M_w_2A/variations/jhPDgNUgXXymLEXeLjCQLQ",
    "rarity": {
      "href": "https://api.gwentapi.com/v0/rarities/V_ImiYfTVhG_WaAOof9Rxg",
      "name": "Epic"
    }
  }]
},
  {
    "categories": [{
      "href": "https://api.gwentapi.com/v0/categories/nHvPGNl1XxWMerlCOeFnXQ",
      "name": "Officer"
    },
      {
        "href": "https://api.gwentapi.com/v0/categories/x9Kd2sk1U2mnrvC2n6MI7w",
        "name": "Elf"
      }
    ],
    "faction": {
      "href": "https://api.gwentapi.com/v0/factions/0BJkuyNoWYyIAcKRVIfWVQ",
      "name": "Scoia'tael"
    },
    "flavor": "Better to die standing than to live on bent knee.",
    "group": {
      "href": "https://api.gwentapi.com/v0/groups/H7ISGXIHW6WazTe6-Iamag",
      "name": "Silver"
    },
    "href": "https://api.gwentapi.com/v0/cards/PAj3wOL2Xlm5t63YjLxWhg",
    "info": "When you have 5 or more Elf Allies, play this Unit from your Deck.",
    "name": "Aelirenn",
    "positions": [
      "Ranged"
    ],
    "strength": 6,
    "uuid": "PAj3wOL2Xlm5t63YjLxWhg",
    "variations": [{
      "availability": "BaseSet",
      "href": "https://api.gwentapi.com/v0/cards/PAj3wOL2Xlm5t63YjLxWhg/variations/JKToxvdGVaSYxoZMm7vCzA",
      "rarity": {
        "href": "https://api.gwentapi.com/v0/rarities/V_ImiYfTVhG_WaAOof9Rxg",
        "name": "Epic"
      }
    }]
  },
  {
    "categories": [{
      "href": "https://api.gwentapi.com/v0/categories/wWqBTy3SWJubVk7yUYbBTA",
      "name": "Special"
    },
      {
        "href": "https://api.gwentapi.com/v0/categories/otcu0JX8XriuLK_o12nOGQ",
        "name": "Spell"
      }
    ],
    "faction": {
      "href": "https://api.gwentapi.com/v0/factions/b6aJCvL_W5G5jm_uaaa9ng",
      "name": "Neutral"
    },
    "flavor": "The druid Vaedermakar controls the elements. He soothes storms into silence, musters destructive hail, summons lightning to turn foes into ash. So I advise you well… treat him with utmost respect.",
    "group": {
      "href": "https://api.gwentapi.com/v0/groups/H7ISGXIHW6WazTe6-Iamag",
      "name": "Silver"
    },
    "href": "https://api.gwentapi.com/v0/cards/y98GaIwyXb-HnN0rf0p1kQ",
    "info": "Play a Bronze or Silver Weather card from your Deck. Shuffle the others back.",
    "name": "Aeromancy",
    "positions": [
      "Event"
    ],
    "uuid": "y98GaIwyXb-HnN0rf0p1kQ",
    "variations": [{
      "availability": "BaseSet",
      "href": "https://api.gwentapi.com/v0/cards/y98GaIwyXb-HnN0rf0p1kQ/variations/KmKCZfxxW02yUe4klbWdcg",
      "rarity": {
        "href": "https://api.gwentapi.com/v0/rarities/V_ImiYfTVhG_WaAOof9Rxg",
        "name": "Epic"
      }
    }]
  },
  {
    "categories": [{
      "href": "https://api.gwentapi.com/v0/categories/drPkLRiDVbi8ZQoA0a4yHg",
      "name": "Organic"
    },
      {
        "href": "https://api.gwentapi.com/v0/categories/wWqBTy3SWJubVk7yUYbBTA",
        "name": "Special"
      }
    ],
    "faction": {
      "href": "https://api.gwentapi.com/v0/factions/b6aJCvL_W5G5jm_uaaa9ng",
      "name": "Neutral"
    },
    "flavor": "The beast rushed at them wildly, with fury in its eyes, immune to pain and any strikes the defenders could land. Nothing stood to stop it…",
    "group": {
      "href": "https://api.gwentapi.com/v0/groups/hjkTk62UXuu30r_GJAYv4A",
      "name": "Bronze"
    },
    "href": "https://api.gwentapi.com/v0/cards/_SIFOcYAVMqjbIi8HKVS9w",
    "info": "Toggle a Unit's Resilience.",
    "name": "Adrenaline Rush",
    "positions": [
      "Event"
    ],
    "uuid": "_SIFOcYAVMqjbIi8HKVS9w",
    "variations": [{
      "availability": "BaseSet",
      "href": "https://api.gwentapi.com/v0/cards/_SIFOcYAVMqjbIi8HKVS9w/variations/PLiQvtbcVA6E8GD0pR0PaQ",
      "rarity": {
        "href": "https://api.gwentapi.com/v0/rarities/-naHV1zlVuCFll-j-7T1ow",
        "name": "Rare"
      }
    }]
  },
  {
    "faction": {
      "href": "https://api.gwentapi.com/v0/factions/0BJkuyNoWYyIAcKRVIfWVQ",
      "name": "Scoia'tael"
    },
    "flavor": "Brokilon bleeds… and not even I can heal it.",
    "group": {
      "href": "https://api.gwentapi.com/v0/groups/f1z4bv7pXU-BzFKd-EBOIw",
      "name": "Gold"
    },
    "href": "https://api.gwentapi.com/v0/cards/DwF8OwZRUYiyajzuBfH2aA",
    "info": "Deploy: You may Resurrect a Bronze or Silver Special card from your opponent's Graveyard.",
    "name": "Aglaïs",
    "positions": [
      "Melee",
      "Ranged",
      "Siege"
    ],
    "strength": 9,
    "uuid": "DwF8OwZRUYiyajzuBfH2aA",
    "variations": [{
      "availability": "BaseSet",
      "href": "https://api.gwentapi.com/v0/cards/DwF8OwZRUYiyajzuBfH2aA/variations/vQttiw0qVUWyGXhoVei-Tw",
      "rarity": {
        "href": "https://api.gwentapi.com/v0/rarities/u0zNKy4EULa_VU4JD5r4EA",
        "name": "Legendary"
      }
    }]
  },
  {
    "categories": [{
      "href": "https://api.gwentapi.com/v0/categories/et6pGJ0UXcCP9q5aSIhq5Q",
      "name": "Soldier"
    }],
    "faction": {
      "href": "https://api.gwentapi.com/v0/factions/PleNo81aUQmuAk_rl8lyFw",
      "name": "Nilfgaard"
    },
    "flavor": "Pledge your allegiance to our Emperor, Emhyr var Emreis… or die.",
    "group": {
      "href": "https://api.gwentapi.com/v0/groups/hjkTk62UXuu30r_GJAYv4A",
      "name": "Bronze"
    },
    "href": "https://api.gwentapi.com/v0/cards/yEGctJ81V_ay1go6m1TFYg",
    "info": "After 1 turn, at the start of your turn, play an Alba Pikeman from your Deck on the row.\nDeploy: Gain 2 Armor.",
    "name": "Alba Pikeman",
    "positions": [
      "Melee",
      "Ranged",
      "Siege"
    ],
    "strength": 4,
    "uuid": "yEGctJ81V_ay1go6m1TFYg",
    "variations": [{
      "availability": "BaseSet",
      "href": "https://api.gwentapi.com/v0/cards/yEGctJ81V_ay1go6m1TFYg/variations/uIQ0VJq2V3q3S63OzqceMA",
      "rarity": {
        "href": "https://api.gwentapi.com/v0/rarities/-naHV1zlVuCFll-j-7T1ow",
        "name": "Rare"
      }
    }]
  },
  {
    "categories": [{
      "href": "https://api.gwentapi.com/v0/categories/et6pGJ0UXcCP9q5aSIhq5Q",
      "name": "Soldier"
    }],
    "faction": {
      "href": "https://api.gwentapi.com/v0/factions/PleNo81aUQmuAk_rl8lyFw",
      "name": "Nilfgaard"
    },
    "flavor": "Death and glory!",
    "group": {
      "href": "https://api.gwentapi.com/v0/groups/hjkTk62UXuu30r_GJAYv4A",
      "name": "Bronze"
    },
    "href": "https://api.gwentapi.com/v0/cards/Up9mM6SDUuqH4tNx7p0q9g",
    "info": "Whenever a player draws a card to their Hand, Boost self by 1.",
    "name": "Alba Spearmen",
    "positions": [
      "Melee",
      "Ranged",
      "Siege"
    ],
    "strength": 8,
    "uuid": "Up9mM6SDUuqH4tNx7p0q9g",
    "variations": [{
      "availability": "BaseSet",
      "href": "https://api.gwentapi.com/v0/cards/Up9mM6SDUuqH4tNx7p0q9g/variations/2bhfL2QzU46xI-ekbbixgg",
      "rarity": {
        "href": "https://api.gwentapi.com/v0/rarities/gGlnI525WLailI_mBFFiSw",
        "name": "Common"
      }
    }]
  },
  {
    "categories": [{
      "href": "https://api.gwentapi.com/v0/categories/HfaxmUTjWtO4xGZDRNRzvQ",
      "name": "Mage"
    }],
    "faction": {
      "href": "https://api.gwentapi.com/v0/factions/PleNo81aUQmuAk_rl8lyFw",
      "name": "Nilfgaard"
    },
    "flavor": "A ball of fire? Why, naturally. Whatsoever Your Imperial Majesty desires.",
    "group": {
      "href": "https://api.gwentapi.com/v0/groups/H7ISGXIHW6WazTe6-Iamag",
      "name": "Silver"
    },
    "href": "https://api.gwentapi.com/v0/cards/zh9_mEPaUzy0la7NpwfO6w",
    "info": "Deploy: If neither player has passed, each player draws the top card from their Deck. Your opponent's card is Revealed.",
    "name": "Albrich",
    "positions": [
      "Siege"
    ],
    "strength": 9,
    "uuid": "zh9_mEPaUzy0la7NpwfO6w",
    "variations": [{
      "availability": "BaseSet",
      "href": "https://api.gwentapi.com/v0/cards/zh9_mEPaUzy0la7NpwfO6w/variations/AuzzdsivU5mqXgRwS1DlBg",
      "rarity": {
        "href": "https://api.gwentapi.com/v0/rarities/V_ImiYfTVhG_WaAOof9Rxg",
        "name": "Epic"
      }
    }]
  },
  {
    "categories": [{
      "href": "https://api.gwentapi.com/v0/categories/HfaxmUTjWtO4xGZDRNRzvQ",
      "name": "Mage"
    }],
    "faction": {
      "href": "https://api.gwentapi.com/v0/factions/PleNo81aUQmuAk_rl8lyFw",
      "name": "Nilfgaard"
    },
    "flavor": "Two ounces of calcium equum, one ounce of rubedo…",
    "group": {
      "href": "https://api.gwentapi.com/v0/groups/hjkTk62UXuu30r_GJAYv4A",
      "name": "Bronze"
    },
    "href": "https://api.gwentapi.com/v0/cards/gycZySRxV-2wgUFMzdNuFw",
    "info": "Deploy: Reveal a card.",
    "name": "Alchemist",
    "positions": [
      "Ranged"
    ],
    "strength": 8,
    "uuid": "gycZySRxV-2wgUFMzdNuFw",
    "variations": [{
      "availability": "BaseSet",
      "href": "https://api.gwentapi.com/v0/cards/gycZySRxV-2wgUFMzdNuFw/variations/WUzgWcP1XnOQUVfssYY4Tg",
      "rarity": {
        "href": "https://api.gwentapi.com/v0/rarities/gGlnI525WLailI_mBFFiSw",
        "name": "Common"
      }
    }]
  },
  {
    "categories": [{
      "href": "https://api.gwentapi.com/v0/categories/wWqBTy3SWJubVk7yUYbBTA",
      "name": "Special"
    },
      {
        "href": "https://api.gwentapi.com/v0/categories/otcu0JX8XriuLK_o12nOGQ",
        "name": "Spell"
      }
    ],
    "faction": {
      "href": "https://api.gwentapi.com/v0/factions/b6aJCvL_W5G5jm_uaaa9ng",
      "name": "Neutral"
    },
    "flavor": "A few of Alzur's monstrous creations roam the world still. Not least among them the horrid viy, who massacred its mage-creator and destroyed half of Maribor before fleeing into Riverdell's gloomy woodland.",
    "group": {
      "href": "https://api.gwentapi.com/v0/groups/H7ISGXIHW6WazTe6-Iamag",
      "name": "Silver"
    },
    "href": "https://api.gwentapi.com/v0/cards/vPscZ3I3WHeJw7cSoQnJ1Q",
    "info": "Boost the Highest Bronze or Silver Unit in your Deck by 2 and play it.",
    "name": "Alzur's Double–Cross",
    "positions": [
      "Event"
    ],
    "uuid": "vPscZ3I3WHeJw7cSoQnJ1Q",
    "variations": [{
      "availability": "BaseSet",
      "href": "https://api.gwentapi.com/v0/cards/vPscZ3I3WHeJw7cSoQnJ1Q/variations/JnRmshGOUZeEkYaVXS1vDw",
      "rarity": {
        "href": "https://api.gwentapi.com/v0/rarities/V_ImiYfTVhG_WaAOof9Rxg",
        "name": "Epic"
      }
    }]
  },
  {
    "categories": [{
      "href": "https://api.gwentapi.com/v0/categories/et6pGJ0UXcCP9q5aSIhq5Q",
      "name": "Soldier"
    }],
    "faction": {
      "href": "https://api.gwentapi.com/v0/factions/PleNo81aUQmuAk_rl8lyFw",
      "name": "Nilfgaard"
    },
    "flavor": "The wedge of riders thundered into the phalanx with crushing momentum. Like a dagger thrust into an exposed belly, the Alba Division swept unhindered through everything between it and the vital organs of the Temerian Infantry.",
    "group": {
      "href": "https://api.gwentapi.com/v0/groups/hjkTk62UXuu30r_GJAYv4A",
      "name": "Bronze"
    },
    "href": "https://api.gwentapi.com/v0/cards/oSnyqiN2V4SVdIiByrJzgA",
    "info": "Deploy: Look at the top 3 Units in your opponent's Deck. Choose one and Boost self by its base Power.",
    "name": "Alba Armored Cavalry",
    "positions": [
      "Melee",
      "Ranged",
      "Siege"
    ],
    "strength": 3,
    "uuid": "oSnyqiN2V4SVdIiByrJzgA",
    "variations": [{
      "availability": "BaseSet",
      "href": "https://api.gwentapi.com/v0/cards/oSnyqiN2V4SVdIiByrJzgA/variations/Co5Wn-jnUvOW5zYsS5anqw",
      "rarity": {
        "href": "https://api.gwentapi.com/v0/rarities/-naHV1zlVuCFll-j-7T1ow",
        "name": "Rare"
      }
    }]
  },
  {
    "categories": [{
      "href": "https://api.gwentapi.com/v0/categories/wWqBTy3SWJubVk7yUYbBTA",
      "name": "Special"
    },
      {
        "href": "https://api.gwentapi.com/v0/categories/otcu0JX8XriuLK_o12nOGQ",
        "name": "Spell"
      }
    ],
    "faction": {
      "href": "https://api.gwentapi.com/v0/factions/b6aJCvL_W5G5jm_uaaa9ng",
      "name": "Neutral"
    },
    "flavor": "We stand not the slightest chance of incanting a spell so complex as Alzur's Thunder. It is claimed Alzur had a voice like a hunting horn and the diction of a master orator.",
    "group": {
      "href": "https://api.gwentapi.com/v0/groups/hjkTk62UXuu30r_GJAYv4A",
      "name": "Bronze"
    },
    "href": "https://api.gwentapi.com/v0/cards/7M955k-GVnmTXoJzAOL-vQ",
    "info": "Damage a Unit by 7.",
    "name": "Alzur's Thunder",
    "positions": [
      "Event"
    ],
    "uuid": "7M955k-GVnmTXoJzAOL-vQ",
    "variations": [{
      "availability": "BaseSet",
      "href": "https://api.gwentapi.com/v0/cards/7M955k-GVnmTXoJzAOL-vQ/variations/0bIlcjwpVcKcmPyD0aHiRg",
      "rarity": {
        "href": "https://api.gwentapi.com/v0/rarities/gGlnI525WLailI_mBFFiSw",
        "name": "Common"
      }
    }]
  },
  {
    "categories": [{
      "href": "https://api.gwentapi.com/v0/categories/2xLNTu5yUSyDo9wNgsSCwg",
      "name": "An Craite"
    },
      {
        "href": "https://api.gwentapi.com/v0/categories/nHvPGNl1XxWMerlCOeFnXQ",
        "name": "Officer"
      }
    ],
    "faction": {
      "href": "https://api.gwentapi.com/v0/factions/Ito_P7DSWi-TCfpWIoG7aQ",
      "name": "Skellige"
    },
    "flavor": "Instead of mournin' the fallen, let's drink to their memory!",
    "group": {
      "href": "https://api.gwentapi.com/v0/groups/f1z4bv7pXU-BzFKd-EBOIw",
      "name": "Gold"
    },
    "href": "https://api.gwentapi.com/v0/cards/_0daGcJyXrSnFSG_XACv8Q",
    "info": "Deploy: Spawn the Lord of Undvik on the leftmost side of the opposite row.",
    "name": "Hjalmar",
    "positions": [
      "Melee",
      "Ranged",
      "Siege"
    ],
    "strength": 14,
    "uuid": "_0daGcJyXrSnFSG_XACv8Q",
    "variations": [{
      "availability": "BaseSet",
      "href": "https://api.gwentapi.com/v0/cards/_0daGcJyXrSnFSG_XACv8Q/variations/KtRk0jowVa-oH-bEdsVmAA",
      "rarity": {
        "href": "https://api.gwentapi.com/v0/rarities/u0zNKy4EULa_VU4JD5r4EA",
        "name": "Legendary"
      }
    }]
  },
  {
    "categories": [{
      "href": "https://api.gwentapi.com/v0/categories/1wnI6NinXfK1PqobYjCsYg",
      "name": "Necrophage"
    }],
    "faction": {
      "href": "https://api.gwentapi.com/v0/factions/M_7suYAmXIC1wZnypJ5zYg",
      "name": "Monster"
    },
    "flavor": "Many primal fears lurk in the hearts of men. The fear of the mist is well–founded…",
    "group": {
      "href": "https://api.gwentapi.com/v0/groups/hjkTk62UXuu30r_GJAYv4A",
      "name": "Bronze"
    },
    "href": "https://api.gwentapi.com/v0/cards/hUA0zFrrXGCCpf3XOSDnuw",
    "info": "Every turn, at the start of your turn, Boost self by 1 if Fog is anywhere on the Board.",
    "name": "Ancient Foglet",
    "positions": [
      "Melee",
      "Ranged",
      "Siege"
    ],
    "strength": 8,
    "uuid": "hUA0zFrrXGCCpf3XOSDnuw",
    "variations": [{
      "availability": "BaseSet",
      "href": "https://api.gwentapi.com/v0/cards/hUA0zFrrXGCCpf3XOSDnuw/variations/Nm4TxPYIW0e9zFXgs4R6Bw",
      "rarity": {
        "href": "https://api.gwentapi.com/v0/rarities/-naHV1zlVuCFll-j-7T1ow",
        "name": "Rare"
      }
    }]
  },
  {
    "categories": [{
      "href": "https://api.gwentapi.com/v0/categories/OmmwzaNVX3y8Tum_hmXs7A",
      "name": "Leader"
    },
      {
        "href": "https://api.gwentapi.com/v0/categories/2xLNTu5yUSyDo9wNgsSCwg",
        "name": "An Craite"
      }
    ],
    "faction": {
      "href": "https://api.gwentapi.com/v0/factions/Ito_P7DSWi-TCfpWIoG7aQ",
      "name": "Skellige"
    },
    "flavor": "Nilfgaardians call 'im Tirth ys Muire, the Wild Boar o' the Sea. Use 'im to scare their kiddies!",
    "group": {
      "href": "https://api.gwentapi.com/v0/groups/OmmwzaNVX3y8Tum_hmXs7A",
      "name": "Leader"
    },
    "href": "https://api.gwentapi.com/v0/cards/0yevWlnyUP6GY9buxdNQWg",
    "info": "Doomed, Stubborn.\nDeploy: Damage self by 1, then play the Highest Loyal Bronze or Silver Unit in your Deck and Strengthen it by 3, then, if it does not Damage itself, Damage it by 1.",
    "name": "Crach an Craite",
    "positions": [
      "Event"
    ],
    "strength": 5,
    "uuid": "0yevWlnyUP6GY9buxdNQWg",
    "variations": [{
      "availability": "BaseSet",
      "href": "https://api.gwentapi.com/v0/cards/0yevWlnyUP6GY9buxdNQWg/variations/Y_-_DkdMWJGVnLV7c1yBmw",
      "rarity": {
        "href": "https://api.gwentapi.com/v0/rarities/u0zNKy4EULa_VU4JD5r4EA",
        "name": "Legendary"
      }
    }]
  }
]